…
---

    Code
      ds_result_unnested
    Output
      # A tibble: 47 x 4
         check_name                 record_id data_collector baseline_date
         <chr>                          <int>          <int> <date>       
       1 baseline_prealbumin_levels         1              1 2015-01-02   
       2 baseline_prealbumin_levels         2              2 2015-01-02   
       3 baseline_prealbumin_levels         3              3 2015-01-05   
       4 baseline_prealbumin_levels         8              1 2015-02-03   
       5 baseline_prealbumin_levels         9              3 2015-02-08   
       6 baseline_prealbumin_levels        12              3 2015-03-06   
       7 baseline_prealbumin_levels        13              1 2015-03-15   
       8 baseline_prealbumin_levels        14              1 2015-03-10   
       9 baseline_prealbumin_levels        15              3 2015-03-03   
      10 baseline_prealbumin_levels        16              2 2015-03-09   
      # ... with 37 more rows
…
